{
  "bomFormat": "CycloneDX",
  "specVersion": "1.3",
  "serialNumber": "urn:uuid:87d4770d-ca92-4e01-b273-e93b08482017",
  "version": 1,
  "metadata": {
    "timestamp": "2022-01-25T08:36:41Z",
    "tools": [
      {
        "vendor": "CycloneDX",
        "name": "CycloneDX Maven plugin",
        "version": "2.5.3",
        "hashes": [
          {
            "alg": "MD5",
            "content": "4f7d894200ad695fc9f0aad66d7da40a"
          },
          {
            "alg": "SHA-1",
            "content": "c044d9b726650cbea3adeb5cc1715c67d8356c0a"
          },
          {
            "alg": "SHA-256",
            "content": "b9a385e430e1f5efd9b835a084c195dde4d5e1bc79e469a8187ec58275c15313"
          },
          {
            "alg": "SHA-384",
            "content": "d96f68ef4b8830d70dc2eb5f2de5211d96b70dd1169da641f34474265c06a5321b63d2c80fe2d82d74c767391225e480"
          },
          {
            "alg": "SHA-512",
            "content": "1d7d1129cdc8604772b3c454d8dff98d936f85af705c95705e3263a038c0bb58fdd58c0b90efa3f56b4ce8ef9c84d3154b74b8451e0470f856f4d688489704b0"
          }
        ]
      }
    ],
    "component": {
      "group": "com.pse.vn.dalt4sec",
      "name": "Log4jDemoRce",
      "version": "1.0-SNAPSHOT",
      "licenses": [],
      "purl": "pkg:maven/com.pse.vn.dalt4sec/Log4jDemoRce@1.0-SNAPSHOT?type=jar",
      "type": "library",
      "bom-ref": "pkg:maven/com.pse.vn.dalt4sec/Log4jDemoRce@1.0-SNAPSHOT?type=jar"
    }
  },
  "components": [
    {
      "publisher": "The Apache Software Foundation",
      "group": "org.apache.logging.log4j",
      "name": "log4j-api",
      "version": "2.14.1",
      "description": "The Apache Log4j API",
      "scope": "optional",
      "hashes": [
        {
          "alg": "MD5",
          "content": "6f31a3b90c3eb09fb0dc0aef155a001c"
        },
        {
          "alg": "SHA-1",
          "content": "cd8858fbbde69f46bce8db1152c18a43328aae78"
        },
        {
          "alg": "SHA-256",
          "content": "8caf58db006c609949a0068110395a33067a2bad707c3da35e959c0473f9a916"
        },
        {
          "alg": "SHA-384",
          "content": "856a20580d193526153838a89cd9060e1983b52c2ea84b3b5289740998815f14f75e4407e32b9eb69c0fdbdd4f41cd69"
        },
        {
          "alg": "SHA-512",
          "content": "2ecbc8e5a03fad8f8133d2b9e83245d4f19bc36f165b20c19e9eac4a0c1bf0422a2e98f796c6bbf47c71bdf34054a1685a6fbb58cef23f2ea830c3946123b8b6"
        }
      ],
      "licenses": [
        {
          "license": {
            "id": "Apache-2.0"
          }
        }
      ],
      "purl": "pkg:maven/org.apache.logging.log4j/log4j-api@2.14.1?type=jar",
      "externalReferences": [
        {
          "type": "build-system",
          "url": "https://ci-builds.apache.org/job/Logging/job/log4j/"
        },
        {
          "type": "distribution",
          "url": "https://logging.apache.org/log4j/2.x/download.html"
        },
        {
          "type": "issue-tracker",
          "url": "https://issues.apache.org/jira/browse/LOG4J2"
        },
        {
          "type": "mailing-list",
          "url": "https://lists.apache.org/list.html?log4j-user@logging.apache.org"
        },
        {
          "type": "vcs",
          "url": "https://gitbox.apache.org/repos/asf?p=logging-log4j2.git"
        },
        {
          "type": "website",
          "url": "https://www.apache.org/"
        }
      ],
      "type": "library",
      "bom-ref": "pkg:maven/org.apache.logging.log4j/log4j-api@2.14.1?type=jar"
    },
    {
      "publisher": "The Apache Software Foundation",
      "group": "org.apache.logging.log4j",
      "name": "log4j-core",
      "version": "2.14.1",
      "description": "The Apache Log4j Implementation",
      "scope": "optional",
      "hashes": [
        {
          "alg": "MD5",
          "content": "948dda787593340a7af1a18e328b7b7f"
        },
        {
          "alg": "SHA-1",
          "content": "9141212b8507ab50a45525b545b39d224614528b"
        },
        {
          "alg": "SHA-256",
          "content": "ade7402a70667a727635d5c4c29495f4ff96f061f12539763f6f123973b465b0"
        },
        {
          "alg": "SHA-384",
          "content": "3b435c14088931e83f71d32066435549331ea1eb5f4535b4cdc1b05fffcfb9db1a34dcaaad4c5c507fe4626122765641"
        },
        {
          "alg": "SHA-512",
          "content": "6e41ff42f12deedb8da06cbed73d0a9a5389660b7ee058436f8fcb6b14a6ab3105faf8e3f2c007d38ccc85af1e704505b84be5a80d8e68a434aae82b54b85f70"
        }
      ],
      "licenses": [
        {
          "license": {
            "id": "Apache-2.0"
          }
        }
      ],
      "purl": "pkg:maven/org.apache.logging.log4j/log4j-core@2.14.1?type=jar",
      "externalReferences": [
        {
          "type": "build-system",
          "url": "https://ci-builds.apache.org/job/Logging/job/log4j/"
        },
        {
          "type": "distribution",
          "url": "https://logging.apache.org/log4j/2.x/download.html"
        },
        {
          "type": "issue-tracker",
          "url": "https://issues.apache.org/jira/browse/LOG4J2"
        },
        {
          "type": "mailing-list",
          "url": "https://lists.apache.org/list.html?log4j-user@logging.apache.org"
        },
        {
          "type": "vcs",
          "url": "https://gitbox.apache.org/repos/asf?p=logging-log4j2.git"
        },
        {
          "type": "website",
          "url": "https://www.apache.org/"
        }
      ],
      "type": "library",
      "bom-ref": "pkg:maven/org.apache.logging.log4j/log4j-core@2.14.1?type=jar"
    }
  ],
  "dependencies": [
    {
      "ref": "pkg:maven/com.pse.vn.dalt4sec/Log4jDemoRce@1.0-SNAPSHOT?type=jar",
      "dependsOn": [
        "pkg:maven/org.apache.logging.log4j/log4j-api@2.14.1?type=jar",
        "pkg:maven/org.apache.logging.log4j/log4j-core@2.14.1?type=jar"
      ]
    },
    {
      "ref": "pkg:maven/org.apache.logging.log4j/log4j-api@2.14.1?type=jar",
      "dependsOn": []
    },
    {
      "ref": "pkg:maven/org.apache.logging.log4j/log4j-core@2.14.1?type=jar",
      "dependsOn": []
    }
  ]
}